{
    "code": 200,
    "data": {
        "total": "53",
        "page": 1,
        "pages": 2,
        "page_size": "50",
        "current_page_size": 50,
        "popularfiles": [
            {
                "timestamp": "2013-08-09 00:00:00",
                "bucket_id": "44703",
                "uri": "/font-awesome/3.2.1/css/font-awesome.css",
                "hit": "245328952",
                "size": "1961332713970",
                "vhost": "bootstrapcdn.jdorfman.netdna-cdn.com"
            },
            {
                "timestamp": "2013-08-09 00:00:00",
                "bucket_id": "44703",
                "uri": "/font-awesome/3.2.1/font/fontawesome-webfont.woff",
                "hit": "223878960",
                "size": "6064488584234",
                "vhost": "bootstrapcdn.jdorfman.netdna-cdn.com"
            },
            {
                "timestamp": "2013-08-09 00:00:00",
                "bucket_id": "44703",
                "uri": "/font-awesome/3.2.1/css/font-awesome.min.css",
                "hit": "161096902",
                "size": "627395362916",
                "vhost": "bootstrapcdn.jdorfman.netdna-cdn.com"
            },
            {
                "timestamp": "2013-08-09 00:00:00",
                "bucket_id": "44703",
                "uri": "/font-awesome/3.2.1/font/fontawesome-webfont.eot",
                "hit": "140643924",
                "size": "2215295627996",
                "vhost": "bootstrapcdn.jdorfman.netdna-cdn.com"
            },
            {
                "timestamp": "2013-08-09 00:00:00",
                "bucket_id": "44703",
                "uri": "/twitter-bootstrap/2.3.2/js/bootstrap.min.js",
                "hit": "100353317",
                "size": "887454937877",
                "vhost": "bootstrapcdn.jdorfman.netdna-cdn.com"
            },
            {
                "timestamp": "2013-08-09 00:00:00",
                "bucket_id": "44703",
                "uri": "/font-awesome/3.0.2/css/font-awesome.css",
                "hit": "96326421",
                "size": "387499386306",
                "vhost": "bootstrapcdn.jdorfman.netdna-cdn.com"
            },
            {
                "timestamp": "2013-08-09 00:00:00",
                "bucket_id": "44703",
                "uri": "/twitter-bootstrap/2.3.1/js/bootstrap.min.js",
                "hit": "82777583",
                "size": "634863126113",
                "vhost": "bootstrapcdn.jdorfman.netdna-cdn.com"
            },
            {
                "timestamp": "2013-08-09 00:00:00",
                "bucket_id": "44703",
                "uri": "/twitter-bootstrap/2.3.2/css/bootstrap-combined.min.css",
                "hit": "72505265",
                "size": "2293230949981",
                "vhost": "bootstrapcdn.jdorfman.netdna-cdn.com"
            },
            {
                "timestamp": "2013-08-09 00:00:00",
                "bucket_id": "44703",
                "uri": "/font-awesome/3.1.1/font/fontawesome-webfont.woff",
                "hit": "68776774",
                "size": "1421391228982",
                "vhost": "bootstrapcdn.jdorfman.netdna-cdn.com"
            },
            {
                "timestamp": "2013-08-09 00:00:00",
                "bucket_id": "44703",
                "uri": "/font-awesome/3.0.2/font/fontawesome-webfont.woff",
                "hit": "66977203",
                "size": "1261242862197",
                "vhost": "bootstrapcdn.jdorfman.netdna-cdn.com"
            },
            {
                "timestamp": "2013-08-09 00:00:00",
                "bucket_id": "44703",
                "uri": "/font-awesome/3.1.1/css/font-awesome.css",
                "hit": "66237079",
                "size": "366848535255",
                "vhost": "bootstrapcdn.jdorfman.netdna-cdn.com"
            },
            {
                "timestamp": "2013-08-09 00:00:00",
                "bucket_id": "44703",
                "uri": "/twitter-bootstrap/2.3.1/css/bootstrap-combined.min.css",
                "hit": "45628630",
                "size": "1112063232271",
                "vhost": "bootstrapcdn.jdorfman.netdna-cdn.com"
            },
            {
                "timestamp": "2013-08-09 00:00:00",
                "bucket_id": "44703",
                "uri": "/twitter-bootstrap/2.3.2/css/bootstrap-combined.no-icons.min.css",
                "hit": "40514996",
                "size": "1062250798722",
                "vhost": "bootstrapcdn.jdorfman.netdna-cdn.com"
            },
            {
                "timestamp": "2013-08-09 00:00:00",
                "bucket_id": "44703",
                "uri": "/twitter-bootstrap/2.3.1/img/glyphicons-halflings.png",
                "hit": "29413691",
                "size": "355748116234",
                "vhost": "bootstrapcdn.jdorfman.netdna-cdn.com"
            },
            {
                "timestamp": "2013-08-09 00:00:00",
                "bucket_id": "44703",
                "uri": "/twitter-bootstrap/2.3.1/css/bootstrap.min.css",
                "hit": "27757061",
                "size": "791522425791",
                "vhost": "bootstrapcdn.jdorfman.netdna-cdn.com"
            },
            {
                "timestamp": "2013-08-09 00:00:00",
                "bucket_id": "44703",
                "uri": "/font-awesome/3.0/font/fontawesome-webfont.woff",
                "hit": "21688444",
                "size": "268132057056",
                "vhost": "bootstrapcdn.jdorfman.netdna-cdn.com"
            },
            {
                "timestamp": "2013-08-09 00:00:00",
                "bucket_id": "44703",
                "uri": "/font-awesome/3.2.0/font/fontawesome-webfont.woff",
                "hit": "16964457",
                "size": "485580405872",
                "vhost": "bootstrapcdn.jdorfman.netdna-cdn.com"
            },
            {
                "timestamp": "2013-08-09 00:00:00",
                "bucket_id": "44703",
                "uri": "/font-awesome/3.0.2/font/fontawesome-webfont.eot",
                "hit": "14562156",
                "size": "299486565252",
                "vhost": "bootstrapcdn.jdorfman.netdna-cdn.com"
            },
            {
                "timestamp": "2013-08-09 00:00:00",
                "bucket_id": "44703",
                "uri": "/font-awesome/3.1.1/css/font-awesome.min.css",
                "hit": "13837189",
                "size": "74115055322",
                "vhost": "bootstrapcdn.jdorfman.netdna-cdn.com"
            },
            {
                "timestamp": "2013-08-09 00:00:00",
                "bucket_id": "44703",
                "uri": "/font-awesome/3.2.1/font/fontawesome-webfont.ttf",
                "hit": "12983192",
                "size": "451284812375",
                "vhost": "bootstrapcdn.jdorfman.netdna-cdn.com"
            },
            {
                "timestamp": "2013-08-09 00:00:00",
                "bucket_id": "44703",
                "uri": "/font-awesome/3.1.1/font/fontawesome-webfont.eot",
                "hit": "12697070",
                "size": "233055526667",
                "vhost": "bootstrapcdn.jdorfman.netdna-cdn.com"
            },
            {
                "timestamp": "2013-08-14 00:00:00",
                "bucket_id": "44703",
                "uri": "/font-awesome/3.0.2/css/font-awesome.min.css",
                "hit": "10889908",
                "size": "48412358443",
                "vhost": "bootstrapcdn.jdorfman.netdna-cdn.com"
            },
            {
                "timestamp": "2013-08-09 00:00:00",
                "bucket_id": "44703",
                "uri": "/font-awesome/3.2.0/css/font-awesome.min.css",
                "hit": "9655625",
                "size": "50582148344",
                "vhost": "bootstrapcdn.jdorfman.netdna-cdn.com"
            },
            {
                "timestamp": "2013-08-09 00:00:00",
                "bucket_id": "44703",
                "uri": "/font-awesome/3.0/css/font-awesome.css",
                "hit": "7687913",
                "size": "48819383159",
                "vhost": "bootstrapcdn.jdorfman.netdna-cdn.com"
            },
            {
                "timestamp": "2013-08-09 00:00:00",
                "bucket_id": "44703",
                "uri": "/font-awesome/3.0/font/fontawesome-webfont.eot",
                "hit": "6758487",
                "size": "65060571588",
                "vhost": "bootstrapcdn.jdorfman.netdna-cdn.com"
            },
            {
                "timestamp": "2013-08-09 00:00:00",
                "bucket_id": "44703",
                "uri": "/font-awesome/3.2.0/css/font-awesome.css",
                "hit": "5674185",
                "size": "41305880741",
                "vhost": "bootstrapcdn.jdorfman.netdna-cdn.com"
            },
            {
                "timestamp": "2013-08-09 00:00:00",
                "bucket_id": "44703",
                "uri": "/twitter-bootstrap/2.3.1/css/bootstrap-combined.no-icons.min.css",
                "hit": "4799703",
                "size": "139385075033",
                "vhost": "bootstrapcdn.jdorfman.netdna-cdn.com"
            },
            {
                "timestamp": "2013-08-09 00:00:00",
                "bucket_id": "44703",
                "uri": "/bootstrap/3.0.0-rc1/js/bootstrap.min.js",
                "hit": "4600357",
                "size": "35053249395",
                "vhost": "bootstrapcdn.jdorfman.netdna-cdn.com"
            },
            {
                "timestamp": "2013-08-09 00:00:00",
                "bucket_id": "44703",
                "uri": "/bootstrap/3.0.0-rc1/css/bootstrap.min.css",
                "hit": "4471203",
                "size": "62463024890",
                "vhost": "bootstrapcdn.jdorfman.netdna-cdn.com"
            },
            {
                "timestamp": "2013-08-21 00:00:00",
                "bucket_id": "44703",
                "uri": "/bootstrap/3.0.0/css/bootstrap.min.css",
                "hit": "4366728",
                "size": "59915481869",
                "vhost": "bootstrapcdn.jdorfman.netdna-cdn.com"
            },
            {
                "timestamp": "2013-08-10 00:00:00",
                "bucket_id": "44703",
                "uri": "/twitter-bootstrap/2.3.1/css/bootstrap-responsive.min.css",
                "hit": "4263418",
                "size": "36583518747",
                "vhost": "bootstrapcdn.jdorfman.netdna-cdn.com"
            },
            {
                "timestamp": "2013-08-13 00:00:00",
                "bucket_id": "44703",
                "uri": "/font-awesome/3.2.1/css/font-awesome-ie7.min.css",
                "hit": "4197583",
                "size": "18404203537",
                "vhost": "bootstrapcdn.jdorfman.netdna-cdn.com"
            },
            {
                "timestamp": "2013-08-23 00:00:00",
                "bucket_id": "44703",
                "uri": "/bootstrap/3.0.0/js/bootstrap.min.js",
                "hit": "2975268",
                "size": "15651262044",
                "vhost": "bootstrapcdn.jdorfman.netdna-cdn.com"
            },
            {
                "timestamp": "2013-08-09 00:00:00",
                "bucket_id": "44703",
                "uri": "/twitter-bootstrap/2.3.2/img/glyphicons-halflings.png",
                "hit": "2227336",
                "size": "26721159416",
                "vhost": "bootstrapcdn.jdorfman.netdna-cdn.com"
            },
            {
                "timestamp": "2013-08-09 00:00:00",
                "bucket_id": "44703",
                "uri": "/bootswatch/2.3.2/cyborg/bootstrap.min.css",
                "hit": "1998694",
                "size": "60479352048",
                "vhost": "bootstrapcdn.jdorfman.netdna-cdn.com"
            },
            {
                "timestamp": "2013-08-09 00:00:00",
                "bucket_id": "44703",
                "uri": "/twitter-bootstrap/2.1.1/js/bootstrap.min.js",
                "hit": "1479099",
                "size": "6427016038",
                "vhost": "bootstrapcdn.jdorfman.netdna-cdn.com"
            },
            {
                "timestamp": "2013-08-09 00:00:00",
                "bucket_id": "44703",
                "uri": "/twitter-bootstrap/2.1.0/js/bootstrap.min.js",
                "hit": "1285948",
                "size": "12177747929",
                "vhost": "bootstrapcdn.jdorfman.netdna-cdn.com"
            },
            {
                "timestamp": "2013-08-09 00:00:00",
                "bucket_id": "44703",
                "uri": "/twitter-bootstrap/2.2.1/js/bootstrap.min.js",
                "hit": "1056759",
                "size": "9111416557",
                "vhost": "bootstrapcdn.jdorfman.netdna-cdn.com"
            },
            {
                "timestamp": "2013-08-09 00:00:00",
                "bucket_id": "44703",
                "uri": "/twitter-bootstrap/2.0.4/img/glyphicons-halflings.png",
                "hit": "1008143",
                "size": "12798530367",
                "vhost": "bootstrapcdn.jdorfman.netdna-cdn.com"
            },
            {
                "timestamp": "2013-08-15 00:00:00",
                "bucket_id": "44703",
                "uri": "/twitter-bootstrap/2.3.2/js/bootstrap.js",
                "hit": "430572",
                "size": "76030745",
                "vhost": "bootstrapcdn.jdorfman.netdna-cdn.com"
            },
            {
                "timestamp": "2013-09-02 00:00:00",
                "bucket_id": "44703",
                "uri": "/bootswatch/2.3.2/cerulean/bootstrap.min.css",
                "hit": "177008",
                "size": "9485103162",
                "vhost": "bootstrapcdn.jdorfman.netdna-cdn.com"
            },
            {
                "timestamp": "2013-08-15 00:00:00",
                "bucket_id": "44703",
                "uri": "/bootstrap/3.0.0-rc2/css/bootstrap.min.css",
                "hit": "138300",
                "size": "2201953399",
                "vhost": "bootstrapcdn.jdorfman.netdna-cdn.com"
            },
            {
                "timestamp": "2013-08-13 00:00:00",
                "bucket_id": "44703",
                "uri": "/twitter-bootstrap/2.3.2/img/glyphicons-halflings-white.png",
                "hit": "105632",
                "size": "876626860",
                "vhost": "bootstrapcdn.jdorfman.netdna-cdn.com"
            },
            {
                "timestamp": "2013-08-11 00:00:00",
                "bucket_id": "44703",
                "uri": "/font-awesome/3.0.2/font/fontawesome-webfont.ttf",
                "hit": "105627",
                "size": "3189551664",
                "vhost": "bootstrapcdn.jdorfman.netdna-cdn.com"
            },
            {
                "timestamp": "2013-08-17 00:00:00",
                "bucket_id": "44703",
                "uri": "/font-awesome/2.0/font//fontawesome-webfont.woff",
                "hit": "40582",
                "size": "1151132479",
                "vhost": "bootstrapcdn.jdorfman.netdna-cdn.com"
            },
            {
                "timestamp": "2013-08-09 00:00:00",
                "bucket_id": "44703",
                "uri": "/twitter-bootstrap/2.1.0/css/bootstrap-combined.min.css",
                "hit": "38471",
                "size": "1012832605",
                "vhost": "bootstrapcdn.jdorfman.netdna-cdn.com"
            },
            {
                "timestamp": "2013-08-27 00:00:00",
                "bucket_id": "44703",
                "uri": "/font-awesome/2.0/css/font-awesome.css",
                "hit": "38213",
                "size": "87534760",
                "vhost": "bootstrapcdn.jdorfman.netdna-cdn.com"
            },
            {
                "timestamp": "2013-08-11 00:00:00",
                "bucket_id": "44703",
                "uri": "/twitter-bootstrap/2.3.2/css/bootstrap-responsive.min.css",
                "hit": "14213",
                "size": "4097794",
                "vhost": "bootstrapcdn.jdorfman.netdna-cdn.com"
            },
            {
                "timestamp": "2013-08-09 00:00:00",
                "bucket_id": "44703",
                "uri": "/twitter-bootstrap/2.3.0/js/bootstrap.min.js",
                "hit": "12112",
                "size": "113605708",
                "vhost": "bootstrapcdn.jdorfman.netdna-cdn.com"
            },
            {
                "timestamp": "2013-08-10 00:00:00",
                "bucket_id": "19464",
                "uri": "/wp-content/uploads/2011/06/justindorfman-logo.png",
                "hit": "8",
                "size": "4977",
                "vhost": "justindorfmancom.jdorfman.netdna-cdn.com"
            }
        ],
        "summary": {
            "hit": "1641446376",
            "size": "24021832170745"
        }
    }
}
